%YAML 1.1
%TAG !u! tag:unity3d.com,2011:
--- !u!1001 &100100000
Prefab:
  m_ObjectHideFlags: 1
  serializedVersion: 2
  m_Modification:
    m_TransformParent: {fileID: 0}
    m_Modifications: []
    m_RemovedComponents: []
  m_ParentPrefab: {fileID: 0}
  m_RootGameObject: {fileID: 1923077775281566}
  m_IsPrefabParent: 1
--- !u!1 &1923077775281566
GameObject:
  m_ObjectHideFlags: 0
  m_PrefabParentObject: {fileID: 0}
  m_PrefabInternal: {fileID: 100100000}
  serializedVersion: 5
  m_Component:
  - component: {fileID: 4510978576135900}
  - component: {fileID: 114919615348123314}
  m_Layer: 0
  m_Name: SpawnFood
  m_TagString: Untagged
  m_Icon: {fileID: 0}
  m_NavMeshLayer: 0
  m_StaticEditorFlags: 0
  m_IsActive: 1
--- !u!4 &4510978576135900
Transform:
  m_ObjectHideFlags: 1
  m_PrefabParentObject: {fileID: 0}
  m_PrefabInternal: {fileID: 100100000}
  m_GameObject: {fileID: 1923077775281566}
  m_LocalRotation: {x: -0, y: -0, z: -0, w: 1}
  m_LocalPosition: {x: -88.42, y: -29.538713, z: 41.660004}
  m_LocalScale: {x: 1, y: 1, z: 1}
  m_Children: []
  m_Father: {fileID: 0}
  m_RootOrder: 0
  m_LocalEulerAnglesHint: {x: 0, y: 0, z: 0}
--- !u!114 &114919615348123314
MonoBehaviour:
  m_ObjectHideFlags: 1
  m_PrefabParentObject: {fileID: 0}
  m_PrefabInternal: {fileID: 100100000}
  m_GameObject: {fileID: 1923077775281566}
  m_Enabled: 1
  m_EditorHideFlags: 0
  m_Script: {fileID: 11500000, guid: c4a13b80d634357429648b019d7d9034, type: 3}
  m_Name: 
  m_EditorClassIdentifier: 
  foodReserve:
  - {fileID: 1406107648929448, guid: 1ce2723b912d69148a7cf55a04b2bb26, type: 2}
  - {fileID: 1599533141610402, guid: d8f9225990787f24b848925655dabeb5, type: 2}
  - {fileID: 1500918306368878, guid: 097c82c0539fdee48aac976c71dcd0fa, type: 2}
  - {fileID: 1086581690603836, guid: ec8b0398156da2a4d962cbb5f071fc08, type: 2}
  - {fileID: 1512618235344518, guid: 1c243013742675344a7bd2720af03279, type: 2}
